1 10 20
100 200 125
201 210 89
900 1000 174
10 10 7
65536 65536 17
24 86686 351
2000 92001 351
6999 83000 351
34001 55999 340
88221 88663 271
23999 27001 308
724856 878702 525
126755 365740 443
778476 896819 525
889434 905292 401
576967 913266 525
296214 818846 509
976405 976418 246
324713 892685 525
618143 870214 525
505769 522444 470
641407 711060 504
136992 815243 509
584241 749056 509
224607 887652 525
69114 525269 470
77973 492145 449
9213 174083 383
676342 962259 525
960638 993296 458
807664 999047 525
564544 578381 421
38798 135912 354
444768 706979 509
36092 362966 443
37973 172014 383
655469 955473 525
337777 995616 525
165435 305984 443
760352 782714 468
759829 993446 525
759801 835903 468
768302 997297 525
296549 921088 525
728188 772986 468
550540 972778 525
687714 897854 525
52425 873284 525
450524 671858 509
556332 911298 525
828847 844618 525
846259 873248 432
392347 569724 470
693262 814605 504
478927 645465 509
758586 890156 525
216315 479264 449
203244 369456 443
197373 998973 525
578713 842226 525
534659 864705 525
247091 287969 407
578063 965301 525
606466 677020 509
5085 675306 509
268514 896903 525
657935 854265 525
688797 699876 442
667078 998370 525
532353 653610 509
639603 976308 525
743857 920116 525
826164 971406 525
865492 890577 445
727213 943179 525
523509 566257 452
959535 984598 458
731311 940652 525
298733 735551 509
611545 959663 525
480497 513690 470
506055 544626 470
54083 836896 509
739297 870615 525
402423 479000 449
341554 581279 470
318606 776397 509
399781 453719 449
903877 911681 476
997042 999414 440
646486 647998 341
137736 363011 443
15159 30153 308
908350 926199 476
188410 343762 443
299099 405756 441
289376 744164 509
655363 660173 429
839042 888986 445
506114 584715 470
341783 435237 449
372440 750749 509
510071 726105 509
993794 995524 365
881768 910183 476
787956 989749 525
652845 718087 504
542863 800303 509
246556 436420 449
122013 426866 449
273407 740349 509
746336 840899 525
849120 950804 507
649581 867716 525
266341 990592 525
129964 990837 525
852747 955893 507
134701 686707 509
874633 954082 507
116905 759273 509
452293 914442 525
498910 516931 470
945921 978491 458
624743 780315 509
222878 588562 470
507632 818480 509
31026 265630 443
875357 990058 507
152279 817349 509
412766 956720 525
903294 922235 476
74196 107115 354
372464 444576 449
568662 756133 509
897486 914836 476
499778 562801 470
461445 619513 470
297093 885990 525
796088 874087 525
649050 906600 525
160505 523171 470
504499 948759 525
987066 994742 396
836613 856528 525
19692 268960 443
820884 972108 525
12498 117099 354
879821 989964 507
537725 906497 525
735724 860035 525
385701 608202 470
529565 574682 452
684935 790476 504
471152 508006 426
603558 989674 525
31911 623497 470
916543 965962 507
109315 121950 349
780567 992989 525
333973 602164 470
860903 977207 507
