1 10 20
10 1 20
1 1 1
99 99 26
100 200 125
201 210 89
900 1000 174
43852 91870 351
13291 91929 351
13402 59526 340
66664 22587 340
91271 83256 333
93561 58056 351
73119 7543 340
81602 5546 351
32159 50501 324
69242 55102 335
82993 13371 351
47444 51490 309
81951 94126 333
44994 98981 351
94271 4125 351
87079 27501 351
24544 82527 351
24364 17897 282
13276 47432 324
87795 83872 333
68517 64865 312
11842 90986 351
27440 17273 308
90572 97828 333
58580 37912 340
50144 95774 351
90781 50503 351
90349 85705 333
264 53413 340
54728 67054 335
73654 89600 351
36378 10210 324
42425 70414 340
7418 61296 340
57391 65139 335
90037 80597 333
51401 91423 351
72271 92464 351
78512 7458 351
16744 39319 324
76567 86887 351
47570 22343 324
62036 36824 340
55093 16295 340
6550 30297 308
61528 54949 335
37108 35021 324
89689 8519 351
91847 80571 333
91400 25744 351
92155 82360 333
9684 19957 279
9023 47606 324
7262 55369 340
81923 13869 351
44642 24720 324
84538 39972 351
43606 73485 340
16411 39991 324
58049 52160 340
75498 57465 335
73115 311 340
96936 50354 351
49507 11623 324
58574 82359 351
71883 24740 340
6027 37621 324
95332 20243 351
28735 30171 272
3029 47072 324
25328 43583 324
61698 65756 330
67970 17107 340
9402 34989 311
80448 47390 351
7109 72528 340
92052 51725 351
36090 97922 351
43129 457 324
71957 44127 340
78612 89779 338
46481 82618 351
89805 99758 333
31446 96855 351
4773 76135 340
44142 41375 288
99097 41518 351
13621 23557 282
90769 725 351
65033 11963 340
56850 80394 351
77366 2197 351
87218 83162 333
12414 12345 263
74919 23044 340
88831 21280 351
20981 43849 324
26926 85882 351
35862 5584 324
74148 16477 340
