1 10 20
100 200 125
201 210 89
900 1000 174
67535 11984 340
24460 11038 282
37080 41364 306
96127 18675 351
6492 59936 340
68791 83243 351
29059 98605 351
24527 62014 340
31791 98101 351
61298 12474 340
6966 53849 340
95876 2613 351
80296 86412 320
25303 86740 351
69380 38609 340
47137 84382 351
61388 42361 340
78968 45929 351
53300 92055 351
10919 82017 351
38874 96581 351
88541 92749 333
7575 43540 324
9308 92002 351
28178 65836 340
21618 8399 279
39543 32275 324
50389 18025 324
46040 37065 314
84645 85530 289
33776 13404 308
32554 1648 308
63493 25947 340
85487 96212 333
37972 22374 324
58611 80165 351
78813 83615 320
53352 37041 340
11074 62326 340
30274 96530 351
60968 5466 340
6413 88367 351
18339 86742 351
28920 8646 308
81778 27870 351
5955 24348 282
46172 46151 177
87291 73429 351
84576 46683 351
16547 2090 276
5239 67060 340
30775 86381 351
1380 36354 324
18668 61524 340
892 21657 279
30604 23299 308
27206 20976 308
12485 95739 351
75871 9979 340
58715 6075 340
97456 40006 351
47670 11828 324
82942 86119 320
77561 86473 338
25971 5707 282
10238 43041 324
71276 77973 351
79056 23740 351
73962 88091 351
46694 88026 351
3801 55049 340
24946 91262 351
14388 45251 324
74197 37259 340
28439 56824 340
15738 54085 340
81300 25645 351
52957 24322 340
28076 62248 340
95972 14924 351
80531 11807 351
71870 76936 325
62031 52981 335
41296 5607 324
25661 32568 308
15481 5136 276
94064 30868 351
30665 8740 308
61672 36412 340
70559 39765 340
18057 92615 351
43034 4605 324
81494 68231 351
54831 47631 340
56286 54860 322
67861 77419 351
51970 89639 351
73876 65120 325
36238 46330 314
88543 18226 351
27524 73419 340
77126 25624 351
23106 78286 351
32029 34543 311
43358 17990 324
89648 64110 351
52745 47079 340
43412 91669 351
52745 70337 335
96496 55797 351
52505 3043 324
97420 30287 351
24144 51166 324
84182 88710 333
69406 36275 340
71149 22905 340
14597 24023 282
39893 62043 340
73397 94133 351
3673 87055 351
26016 57780 340
14038 93090 351
99044 21796 351
21406 37821 324
97026 66137 351
51085 28961 324
84181 69803 351
58020 80804 351
24485 36624 324
76911 96242 351
79027 88434 333
84827 74978 351
55862 93633 351
68868 3844 340
25686 62870 340
4757 45305 324
67473 35610 340
54843 30770 340
84695 45730 351
99928 58137 351
96280 16789 351
55657 23466 340
75730 48155 340
59586 51037 340
33506 33072 236
63942 89936 351
26 3231 217
78704 2028 351
88224 72677 351
69728 77696 351
2863 18051 279
12477 14139 276
82385 88816 333
13036 33745 308
63926 46223 340
90526 60634 351
50859 65751 340
64014 83275 351
86438 54755 351
50025 26179 324
70226 95173 351
9484 71968 340
99213 95347 328
40007 85827 351
14437 37263 324
849 58755 340
76596 57327 335
91995 11991 351
1247 98327 351
50318 14720 324
99498 63773 351
14556 77692 351
40310 3525 324
55371 67325 335
50262 62230 340
72766 16016 340
65481 95539 351
28613 42249 324
9521 23704 282
9735 77290 351
93045 44154 351
39780 30979 324
36743 2810 324
74964 64981 325
11884 4245 268
9522 5949 262
12177 94013 351
54721 55705 260
65373 84944 351
6055 48082 324
19242 56784 340
35325 35744 324
14317 14147 196
87093 31447 351
53690 51588 340
61248 27621 340
89 18517 279
79945 60643 351
23050 29714 308
5 5 6
10000 10000 30
